[
  {
    "role": "superAdmin",
    "uri": "/api/get-token", 
    "extraParams": {}, 
    "populateParams": [],
    "selectParams": {}
  },
  {
    "role": "superAdmin",
    "uri": "/api/meeting/all", 
    "extraParams": {}, 
    "populateParams": [],
    "selectParams": { "_id": 1 }
  }, 
  {
    "role": "superAdmin",
    "uri": "/api/meeting/upload", 
    "extraParams": {}, 
    "populateParams": [],
    "selectParams": {}
  }
]