[
  { "value": "in_progress", "label": "En cours" },
  { "value": "achieve", "label": "Réalisé" },
  { "value": "invoiced", "label": "Facturé" },
  { "value": "canceled", "label": "Annulé" },
  { "value": "anomaly", "label": "Anomalie" }
]