{
  "mongoUrl": "mongodb://localhost:27017/todolist",
  "mongoOptions": { 
    "useNewUrlParser": true,
    "useUnifiedTopology": true,
    "useCreateIndex": true 
  },
  "urlFront": [
    "http://localhost:3000"
  ],
  "bcrypt": {
    "salt": 10,
    "encryptKey": "OIHCEOI7658DZD5298DZDZ"
  },
  "roles": ["superAdmin", "cocontractor", "subcontractor", "customer", "comanager", "supermanager"],
  "superAdminRole": "superAdmin"
}